(export (version D)
  (design
    (source "C:/Users/mihai.visa/mv/ownsand/ESP8266-12E temperature control/HW/kicad_prj/ESP8266-12E_programming/ESP8266-12E_programming.sch")
    (date "30.11.2018 20:10:57")
    (tool "Eeschema 4.0.7")
    (sheet (number 1) (name /) (tstamps /)
      (title_block
        (title "House temperature control via ESP8266-12E")
        (company)
        (rev 0.1)
        (date 2018-01-27)
        (source ESP8266-12E_programming.sch)
        (comment (number 1) (value ""))
        (comment (number 2) (value ""))
        (comment (number 3) (value ""))
        (comment (number 4) (value "")))))
  (components
    (comp (ref U1)
      (value ESP-12E)
      (footprint RF_Modules:ESP-12E)
      (libsource (lib ESP8266) (part ESP-12E))
      (sheetpath (names /) (tstamps /))
      (tstamp 5A69C7C2))
    (comp (ref R7)
      (value 3k3)
      (footprint Resistors_THT:R_Axial_DIN0414_L11.9mm_D4.5mm_P15.24mm_Horizontal)
      (libsource (lib device) (part R))
      (sheetpath (names /) (tstamps /))
      (tstamp 5A69D507))
    (comp (ref R8)
      (value 3k3)
      (footprint Resistors_THT:R_Axial_DIN0414_L11.9mm_D4.5mm_P15.24mm_Horizontal)
      (libsource (lib device) (part R))
      (sheetpath (names /) (tstamps /))
      (tstamp 5A69D544))
    (comp (ref J4)
      (value FTDI232)
      (footprint Socket_Strips:Socket_Strip_Straight_1x06_Pitch2.54mm)
      (libsource (lib conn) (part Conn_01x06_Female))
      (sheetpath (names /) (tstamps /))
      (tstamp 5A69D9D7))
    (comp (ref J2)
      (value MAX6675)
      (footprint Socket_Strips:Socket_Strip_Straight_1x05_Pitch2.54mm)
      (libsource (lib conn) (part Conn_01x05_Female))
      (sheetpath (names /) (tstamps /))
      (tstamp 5A69DAA4))
    (comp (ref Q1)
      (value BC547)
      (footprint TO_SOT_Packages_THT:TO-92_Molded_Narrow)
      (libsource (lib transistors) (part BC547))
      (sheetpath (names /) (tstamps /))
      (tstamp 5A6A49A6))
    (comp (ref R4)
      (value 3k3)
      (footprint Resistors_THT:R_Axial_DIN0414_L11.9mm_D4.5mm_P15.24mm_Horizontal)
      (libsource (lib device) (part R))
      (sheetpath (names /) (tstamps /))
      (tstamp 5A6A4BF8))
    (comp (ref R5)
      (value 1k)
      (footprint Resistors_THT:R_Axial_DIN0414_L11.9mm_D4.5mm_P15.24mm_Horizontal)
      (libsource (lib device) (part R))
      (sheetpath (names /) (tstamps /))
      (tstamp 5A6A4CCF))
    (comp (ref R6)
      (value 1k)
      (footprint Resistors_THT:R_Axial_DIN0414_L11.9mm_D4.5mm_P15.24mm_Horizontal)
      (libsource (lib device) (part R))
      (sheetpath (names /) (tstamps /))
      (tstamp 5A6A5578))
    (comp (ref R3)
      (value 1k)
      (footprint Resistors_THT:R_Axial_DIN0414_L11.9mm_D4.5mm_P15.24mm_Horizontal)
      (libsource (lib device) (part R))
      (sheetpath (names /) (tstamps /))
      (tstamp 5A6A56F5))
    (comp (ref R2)
      (value 800R)
      (footprint Resistors_THT:R_Axial_DIN0414_L11.9mm_D4.5mm_P15.24mm_Horizontal)
      (libsource (lib device) (part R))
      (sheetpath (names /) (tstamps /))
      (tstamp 5A6A5746))
    (comp (ref R1)
      (value 1k)
      (footprint Resistors_THT:R_Axial_DIN0414_L11.9mm_D4.5mm_P15.24mm_Horizontal)
      (libsource (lib device) (part R))
      (sheetpath (names /) (tstamps /))
      (tstamp 5A6A57AB))
    (comp (ref Q2)
      (value BC547)
      (footprint TO_SOT_Packages_THT:TO-92_Molded_Narrow)
      (libsource (lib transistors) (part BC547))
      (sheetpath (names /) (tstamps /))
      (tstamp 5A6A6119))
    (comp (ref J1)
      (value USB_B)
      (footprint Connectors:USB_B)
      (libsource (lib conn) (part USB_B))
      (sheetpath (names /) (tstamps /))
      (tstamp 5A6A63F7))
    (comp (ref K1)
      (value "5V relay")
      (footprint Relays_THT:Relay_SPDT_HJR-4102)
      (libsource (lib relays) (part TIANBO-HJR-4102-L))
      (sheetpath (names /) (tstamps /))
      (tstamp 5A6B4C50))
    (comp (ref SW1)
      (value RESET)
      (footprint .pretty:SW_NKK_G1xJP)
      (libsource (lib switches) (part SW_DIP_x01))
      (sheetpath (names /) (tstamps /))
      (tstamp 5A6B8BA9))
    (comp (ref SW2)
      (value FLASH)
      (footprint .pretty:SW_NKK_G1xJP)
      (libsource (lib switches) (part SW_DIP_x01))
      (sheetpath (names /) (tstamps /))
      (tstamp 5A6B8F61))
    (comp (ref D1)
      (value 1N4001)
      (footprint Diodes_THT:D_A-405_P7.62mm_Horizontal)
      (libsource (lib device) (part D))
      (sheetpath (names /) (tstamps /))
      (tstamp 5A6CB051))
    (comp (ref C1)
      (value 100nF)
      (footprint Capacitors_THT:C_Disc_D4.3mm_W1.9mm_P5.00mm)
      (libsource (lib device) (part C))
      (sheetpath (names /) (tstamps /))
      (tstamp 5A6CBDC3))
    (comp (ref D3)
      (value 1N4148)
      (footprint Diodes_THT:D_DO-15_P12.70mm_Horizontal)
      (libsource (lib device) (part D))
      (sheetpath (names /) (tstamps /))
      (tstamp 5A6CC902))
    (comp (ref D2)
      (value 1N4148)
      (footprint Diodes_THT:D_DO-15_P15.24mm_Horizontal)
      (libsource (lib device) (part D))
      (sheetpath (names /) (tstamps /))
      (tstamp 5A6CC99B))
    (comp (ref C2)
      (value 100nF)
      (footprint Capacitors_THT:C_Disc_D4.3mm_W1.9mm_P5.00mm)
      (libsource (lib device) (part C))
      (sheetpath (names /) (tstamps /))
      (tstamp 5A6CCAE8))
    (comp (ref R9)
      (value 4k7)
      (footprint Resistors_THT:R_Axial_DIN0414_L11.9mm_D4.5mm_P5.08mm_Vertical)
      (libsource (lib device) (part R))
      (sheetpath (names /) (tstamps /))
      (tstamp 5A6CD2FE))
    (comp (ref U2)
      (value LTV-817)
      (footprint Housings_DIP:DIP-16_W7.62mm_LongPads)
      (libsource (lib opto) (part LTV-817))
      (sheetpath (names /) (tstamps /))
      (tstamp 5AAE1709))
    (comp (ref J3)
      (value "Switch contacts")
      (footprint Connectors_Phoenix:PhoenixContact_MC-GF_02x5.08mm_Angled_ThreadedFlange)
      (libsource (lib conn) (part Conn_01x02_Female))
      (sheetpath (names /) (tstamps /))
      (tstamp 5A6A5207))
    (comp (ref J5)
      (value "Switch contacts")
      (footprint Connectors_Phoenix:PhoenixContact_MC-GF_02x5.08mm_Angled_ThreadedFlange)
      (libsource (lib conn) (part Conn_01x02_Female))
      (sheetpath (names /) (tstamps /))
      (tstamp 5C018C22))
    (comp (ref BT1)
      (value Battery_Cell)
      (footprint Battery_Holders:Keystone_103_1x20mm-CoinCell)
      (libsource (lib device) (part Battery_Cell))
      (sheetpath (names /) (tstamps /))
      (tstamp 5C01B0EE))
    (comp (ref D5)
      (value 1N4001)
      (footprint Diodes_THT:D_DO-15_P12.70mm_Horizontal)
      (libsource (lib device) (part D))
      (sheetpath (names /) (tstamps /))
      (tstamp 5C01B2B5))
    (comp (ref D4)
      (value 1N4001)
      (footprint Diodes_THT:D_A-405_P7.62mm_Horizontal)
      (libsource (lib device) (part D))
      (sheetpath (names /) (tstamps /))
      (tstamp 5C01BB94)))
  (libparts
    (libpart (lib transistors) (part BC547)
      (aliases
        (alias BC546)
        (alias BC548)
        (alias BC549)
        (alias BC550)
        (alias BC337)
        (alias BC338))
      (description "45V Vce, 0.1A Ic, NPN, Small Signal Transistor, TO-92")
      (docs http://www.fairchildsemi.com/ds/BC/BC547.pdf)
      (footprints
        (fp TO?92*))
      (fields
        (field (name Reference) Q)
        (field (name Value) BC547)
        (field (name Footprint) TO_SOT_Packages_THT:TO-92_Molded_Narrow))
      (pins
        (pin (num 1) (name C) (type passive))
        (pin (num 2) (name B) (type input))
        (pin (num 3) (name E) (type passive))))
    (libpart (lib device) (part Battery_Cell)
      (description "single battery cell")
      (fields
        (field (name Reference) BT)
        (field (name Value) Battery_Cell))
      (pins
        (pin (num 1) (name +) (type passive))
        (pin (num 2) (name -) (type passive))))
    (libpart (lib device) (part C)
      (description "Unpolarized capacitor")
      (footprints
        (fp C_*))
      (fields
        (field (name Reference) C)
        (field (name Value) C))
      (pins
        (pin (num 1) (name ~) (type passive))
        (pin (num 2) (name ~) (type passive))))
    (libpart (lib conn) (part Conn_01x02_Female)
      (description "Generic connector, single row, 01x02")
      (docs ~)
      (footprints
        (fp Connector*:*_??x*mm*)
        (fp Connector*:*1x??x*mm*)
        (fp Socket?Strip?Straight?1X*)
        (fp Socket?Strip?Angled?1X*))
      (fields
        (field (name Reference) J)
        (field (name Value) Conn_01x02_Female))
      (pins
        (pin (num 1) (name Pin_1) (type passive))
        (pin (num 2) (name Pin_2) (type passive))))
    (libpart (lib conn) (part Conn_01x05_Female)
      (description "Generic connector, single row, 01x05")
      (docs ~)
      (footprints
        (fp Connector*:*_??x*mm*)
        (fp Connector*:*1x??x*mm*)
        (fp Socket?Strip?Straight?1X*)
        (fp Socket?Strip?Angled?1X*))
      (fields
        (field (name Reference) J)
        (field (name Value) Conn_01x05_Female))
      (pins
        (pin (num 1) (name Pin_1) (type passive))
        (pin (num 2) (name Pin_2) (type passive))
        (pin (num 3) (name Pin_3) (type passive))
        (pin (num 4) (name Pin_4) (type passive))
        (pin (num 5) (name Pin_5) (type passive))))
    (libpart (lib conn) (part Conn_01x06_Female)
      (description "Generic connector, single row, 01x06")
      (docs ~)
      (footprints
        (fp Connector*:*_??x*mm*)
        (fp Connector*:*1x??x*mm*)
        (fp Socket?Strip?Straight?1X*)
        (fp Socket?Strip?Angled?1X*))
      (fields
        (field (name Reference) J)
        (field (name Value) Conn_01x06_Female))
      (pins
        (pin (num 1) (name Pin_1) (type passive))
        (pin (num 2) (name Pin_2) (type passive))
        (pin (num 3) (name Pin_3) (type passive))
        (pin (num 4) (name Pin_4) (type passive))
        (pin (num 5) (name Pin_5) (type passive))
        (pin (num 6) (name Pin_6) (type passive))))
    (libpart (lib device) (part D)
      (description Diode)
      (footprints
        (fp TO-???*)
        (fp *SingleDiode)
        (fp *_Diode_*)
        (fp *SingleDiode*)
        (fp D_*))
      (fields
        (field (name Reference) D)
        (field (name Value) D))
      (pins
        (pin (num 1) (name K) (type passive))
        (pin (num 2) (name A) (type passive))))
    (libpart (lib ESP8266) (part ESP-12E)
      (aliases
        (alias ESP-12F))
      (description "ESP8266 ESP-12E module, 22 pins, 2mm, PCB antenna")
      (docs http://l0l.org.uk/2014/12/esp8266-modules-hardware-guide-gotta-catch-em-all/)
      (footprints
        (fp ESP-12E)
        (fp ESP-12E_SMD))
      (fields
        (field (name Reference) U)
        (field (name Value) ESP-12E))
      (pins
        (pin (num 1) (name REST) (type input))
        (pin (num 2) (name ADC) (type passive))
        (pin (num 3) (name CH_PD) (type input))
        (pin (num 4) (name GPIO16) (type BiDi))
        (pin (num 5) (name GPIO14) (type BiDi))
        (pin (num 6) (name GPIO12) (type BiDi))
        (pin (num 7) (name GPIO13) (type BiDi))
        (pin (num 8) (name VCC) (type power_in))
        (pin (num 9) (name GND) (type power_in))
        (pin (num 10) (name GPIO15) (type BiDi))
        (pin (num 11) (name GPIO2) (type BiDi))
        (pin (num 12) (name GPIO0) (type BiDi))
        (pin (num 13) (name GPIO4) (type BiDi))
        (pin (num 14) (name GPIO5) (type BiDi))
        (pin (num 15) (name RXD) (type input))
        (pin (num 16) (name TXD) (type output))
        (pin (num 17) (name CS0) (type BiDi))
        (pin (num 18) (name MISO) (type BiDi))
        (pin (num 19) (name GPIO9) (type BiDi))
        (pin (num 20) (name GPIO10) (type BiDi))
        (pin (num 21) (name MOSI) (type BiDi))
        (pin (num 22) (name SCLK) (type BiDi))))
    (libpart (lib opto) (part LTV-817)
      (description "DC Optocoupler, Vce 35V, CTR 50%, DIP-4")
      (docs http://www.us.liteon.com/downloads/LTV-817-827-847.PDF)
      (footprints
        (fp DIP*W7.62mm*))
      (fields
        (field (name Reference) U)
        (field (name Value) LTV-817)
        (field (name Footprint) Housings_DIP:DIP-4_W7.62mm))
      (pins
        (pin (num 1) (name ~) (type passive))
        (pin (num 2) (name ~) (type passive))
        (pin (num 3) (name ~) (type passive))
        (pin (num 4) (name ~) (type passive))))
    (libpart (lib device) (part R)
      (description Resistor)
      (footprints
        (fp R_*)
        (fp R_*))
      (fields
        (field (name Reference) R)
        (field (name Value) R))
      (pins
        (pin (num 1) (name ~) (type passive))
        (pin (num 2) (name ~) (type passive))))
    (libpart (lib switches) (part SW_DIP_x01)
      (description "1x DIP Switch, Single Pole Single Throw (SPST) switch, small symbol")
      (footprints
        (fp SW?DIP?x1*))
      (fields
        (field (name Reference) SW)
        (field (name Value) SW_DIP_x01))
      (pins
        (pin (num 1) (name ~) (type passive))
        (pin (num 2) (name ~) (type passive))))
    (libpart (lib relays) (part TIANBO-HJR-4102-L)
      (description "TIANBO HJR-4102-L, Single Pole Relay, 5mm Pitch, 3A")
      (docs https://cdn-reichelt.de/documents/datenblatt/C300/DS_HJR4102E.pdf)
      (footprints
        (fp Relay*HJR?4102*))
      (fields
        (field (name Reference) K)
        (field (name Value) TIANBO-HJR-4102-L)
        (field (name Footprint) Relays_THT:Relay_SPDT_HJR-4102))
      (pins
        (pin (num 5) (name ~) (type passive))
        (pin (num 6) (name ~) (type passive))
        (pin (num 7) (name ~) (type passive))
        (pin (num 8) (name ~) (type passive))
        (pin (num 12) (name ~) (type passive))))
    (libpart (lib conn) (part USB_B)
      (description "USB Type B connector")
      (footprints
        (fp USB*))
      (fields
        (field (name Reference) J)
        (field (name Value) USB_B))
      (pins
        (pin (num 1) (name VBUS) (type power_out))
        (pin (num 2) (name D-) (type passive))
        (pin (num 3) (name D+) (type passive))
        (pin (num 4) (name GND) (type power_out))
        (pin (num 5) (name Shield) (type passive)))))
  (libraries
    (library (logical switches)
      (uri "C:\\Program Files\\KiCad\\share\\kicad\\library\\switches.lib"))
    (library (logical opto)
      (uri "C:\\Program Files\\KiCad\\share\\kicad\\library\\opto.lib"))
    (library (logical relays)
      (uri "C:\\Program Files\\KiCad\\share\\kicad\\library\\relays.lib"))
    (library (logical transistors)
      (uri "C:\\Program Files\\KiCad\\share\\kicad\\library\\transistors.lib"))
    (library (logical conn)
      (uri "C:\\Program Files\\KiCad\\share\\kicad\\library\\conn.lib"))
    (library (logical ESP8266)
      (uri "C:\\Users\\mihai.visa\\mv\\ownsand\\ESP8266-12E temperature control\\HW\\kicad_prj\\ESP8266-12E_programming\\kicad-ESP8266-master\\ESP8266.lib"))
    (library (logical device)
      (uri "C:\\Program Files\\KiCad\\share\\kicad\\library\\device.lib")))
  (nets
    (net (code 1) (name "Net-(Q2-Pad2)")
      (node (ref U1) (pin 13))
      (node (ref Q2) (pin 2)))
    (net (code 2) (name "Net-(R2-Pad2)")
      (node (ref R3) (pin 1))
      (node (ref R2) (pin 2)))
    (net (code 3) (name "Net-(D1-Pad1)")
      (node (ref Q2) (pin 3))
      (node (ref K1) (pin 5))
      (node (ref D1) (pin 1)))
    (net (code 4) (name +5V)
      (node (ref R1) (pin 1))
      (node (ref Q2) (pin 1))
      (node (ref J1) (pin 1))
      (node (ref C1) (pin 1)))
    (net (code 5) (name "Net-(R5-Pad1)")
      (node (ref R6) (pin 2))
      (node (ref R5) (pin 1)))
    (net (code 6) (name "Net-(J4-Pad2)")
      (node (ref U1) (pin 15))
      (node (ref J4) (pin 2)))
    (net (code 7) (name "Net-(J4-Pad3)")
      (node (ref J4) (pin 3))
      (node (ref U1) (pin 16)))
    (net (code 8) (name "Net-(Q1-Pad1)")
      (node (ref R4) (pin 1))
      (node (ref Q1) (pin 1))
      (node (ref R5) (pin 2)))
    (net (code 9) (name "Net-(Q1-Pad2)")
      (node (ref U1) (pin 14))
      (node (ref Q1) (pin 2)))
    (net (code 10) (name "Net-(Q1-Pad3)")
      (node (ref U2) (pin 1))
      (node (ref Q1) (pin 3)))
    (net (code 11) (name "Net-(J3-Pad2)")
      (node (ref J3) (pin 2))
      (node (ref K1) (pin 12)))
    (net (code 12) (name "Net-(J3-Pad1)")
      (node (ref J3) (pin 1))
      (node (ref K1) (pin 6)))
    (net (code 13) (name "Net-(D3-Pad1)")
      (node (ref J4) (pin 1))
      (node (ref D3) (pin 1)))
    (net (code 14) (name "Net-(C2-Pad1)")
      (node (ref C2) (pin 1))
      (node (ref D2) (pin 1))
      (node (ref D3) (pin 2)))
    (net (code 15) (name "Net-(C2-Pad2)")
      (node (ref R9) (pin 2))
      (node (ref U1) (pin 3))
      (node (ref C2) (pin 2)))
    (net (code 16) (name "Net-(J5-Pad1)")
      (node (ref J5) (pin 1))
      (node (ref U2) (pin 4)))
    (net (code 17) (name "Net-(D4-Pad2)")
      (node (ref R2) (pin 1))
      (node (ref R1) (pin 2))
      (node (ref D4) (pin 2)))
    (net (code 18) (name "Net-(BT1-Pad1)")
      (node (ref D5) (pin 2))
      (node (ref BT1) (pin 1)))
    (net (code 19) (name "Net-(J5-Pad2)")
      (node (ref U2) (pin 3))
      (node (ref J5) (pin 2)))
    (net (code 20) (name "Net-(J2-Pad4)")
      (node (ref J2) (pin 4))
      (node (ref U1) (pin 7)))
    (net (code 21) (name "Net-(J2-Pad5)")
      (node (ref U1) (pin 6))
      (node (ref J2) (pin 5)))
    (net (code 22) (name "Net-(J2-Pad3)")
      (node (ref J2) (pin 3))
      (node (ref U1) (pin 5)))
    (net (code 23) (name "Net-(SW1-Pad1)")
      (node (ref U1) (pin 4))
      (node (ref U1) (pin 1))
      (node (ref SW1) (pin 1)))
    (net (code 24) (name GND)
      (node (ref SW1) (pin 2))
      (node (ref U1) (pin 10))
      (node (ref D1) (pin 2))
      (node (ref C1) (pin 2))
      (node (ref K1) (pin 8))
      (node (ref BT1) (pin 2))
      (node (ref U2) (pin 2))
      (node (ref J1) (pin 4))
      (node (ref SW2) (pin 1))
      (node (ref R3) (pin 2))
      (node (ref R6) (pin 1))
      (node (ref J4) (pin 6))
      (node (ref U1) (pin 9))
      (node (ref J2) (pin 1)))
    (net (code 25) (name "Net-(J4-Pad5)")
      (node (ref J4) (pin 5)))
    (net (code 26) (name "Net-(J4-Pad4)")
      (node (ref J4) (pin 4)))
    (net (code 27) (name "Net-(U1-Pad2)")
      (node (ref U1) (pin 2)))
    (net (code 28) (name "Net-(D4-Pad1)")
      (node (ref J2) (pin 2))
      (node (ref D5) (pin 1))
      (node (ref U1) (pin 8))
      (node (ref R9) (pin 1))
      (node (ref R7) (pin 1))
      (node (ref R8) (pin 1))
      (node (ref D4) (pin 1))
      (node (ref R4) (pin 2)))
    (net (code 29) (name "Net-(U1-Pad20)")
      (node (ref U1) (pin 20)))
    (net (code 30) (name "Net-(U1-Pad21)")
      (node (ref U1) (pin 21)))
    (net (code 31) (name "Net-(D2-Pad2)")
      (node (ref D2) (pin 2))
      (node (ref SW2) (pin 2))
      (node (ref U1) (pin 12))
      (node (ref R7) (pin 2)))
    (net (code 32) (name "Net-(U1-Pad22)")
      (node (ref U1) (pin 22)))
    (net (code 33) (name "Net-(J1-Pad2)")
      (node (ref J1) (pin 2)))
    (net (code 34) (name "Net-(U1-Pad17)")
      (node (ref U1) (pin 17)))
    (net (code 35) (name "Net-(U1-Pad18)")
      (node (ref U1) (pin 18)))
    (net (code 36) (name "Net-(U1-Pad19)")
      (node (ref U1) (pin 19)))
    (net (code 37) (name "Net-(R8-Pad2)")
      (node (ref U1) (pin 11))
      (node (ref R8) (pin 2)))
    (net (code 38) (name "Net-(J1-Pad3)")
      (node (ref J1) (pin 3)))
    (net (code 39) (name "Net-(J1-Pad5)")
      (node (ref J1) (pin 5)))
    (net (code 40) (name "Net-(K1-Pad7)")
      (node (ref K1) (pin 7)))))