EESchema Schematic File Version 2
LIBS:power
LIBS:device
LIBS:switches
LIBS:relays
LIBS:motors
LIBS:transistors
LIBS:conn
LIBS:linear
LIBS:regul
LIBS:74xx
LIBS:cmos4000
LIBS:adc-dac
LIBS:memory
LIBS:xilinx
LIBS:microcontrollers
LIBS:dsp
LIBS:microchip
LIBS:analog_switches
LIBS:motorola
LIBS:texas
LIBS:intel
LIBS:audio
LIBS:interface
LIBS:digital-audio
LIBS:philips
LIBS:display
LIBS:cypress
LIBS:siliconi
LIBS:opto
LIBS:atmel
LIBS:contrib
LIBS:valves
LIBS:ESP8266
LIBS:ESP8266-12E_programming-cache
EELAYER 25 0
EELAYER END
$Descr A4 11693 8268
encoding utf-8
Sheet 1 1
Title "House temperature control via ESP8266-12E"
Date "2018-01-27"
Rev "0.1"
Comp ""
Comment1 ""
Comment2 ""
Comment3 ""
Comment4 ""
$EndDescr
$Comp
L ESP-12E U1
U 1 1 5A69C7C2
P 4850 3800
F 0 "U1" H 4850 3700 50  0000 C CNN
F 1 "ESP-12E" H 4850 3900 50  0000 C CNN
F 2 "RF_Modules:ESP-12E" H 4850 3800 50  0001 C CNN
F 3 "" H 4850 3800 50  0001 C CNN
	1    4850 3800
	1    0    0    -1  
$EndComp
$Comp
L R R7
U 1 1 5A69D507
P 3650 2150
F 0 "R7" V 3730 2150 50  0000 C CNN
F 1 "3k3" V 3650 2150 50  0000 C CNN
F 2 "Resistors_THT:R_Axial_DIN0414_L11.9mm_D4.5mm_P15.24mm_Horizontal" V 3580 2150 50  0001 C CNN
F 3 "" H 3650 2150 50  0001 C CNN
	1    3650 2150
	1    0    0    -1  
$EndComp
$Comp
L R R8
U 1 1 5A69D544
P 3900 2150
F 0 "R8" V 3980 2150 50  0000 C CNN
F 1 "3k3" V 3900 2150 50  0000 C CNN
F 2 "Resistors_THT:R_Axial_DIN0414_L11.9mm_D4.5mm_P15.24mm_Horizontal" V 3830 2150 50  0001 C CNN
F 3 "" H 3900 2150 50  0001 C CNN
	1    3900 2150
	1    0    0    -1  
$EndComp
$Comp
L GND #PWR01
U 1 1 5A69D772
P 5400 5400
F 0 "#PWR01" H 5400 5150 50  0001 C CNN
F 1 "GND" H 5400 5250 50  0000 C CNN
F 2 "" H 5400 5400 50  0001 C CNN
F 3 "" H 5400 5400 50  0001 C CNN
	1    5400 5400
	1    0    0    -1  
$EndComp
$Comp
L Conn_01x06_Female J4
U 1 1 5A69D9D7
P 7300 2950
F 0 "J4" H 7300 3250 50  0000 C CNN
F 1 "FTDI232" H 7300 2550 50  0000 C CNN
F 2 "Socket_Strips:Socket_Strip_Straight_1x06_Pitch2.54mm" H 7300 2950 50  0001 C CNN
F 3 "" H 7300 2950 50  0001 C CNN
	1    7300 2950
	1    0    0    -1  
$EndComp
$Comp
L Conn_01x05_Female J2
U 1 1 5A69DAA4
P 2700 4300
F 0 "J2" H 2700 4600 50  0000 C CNN
F 1 "MAX6675" H 2700 4000 50  0000 C CNN
F 2 "Socket_Strips:Socket_Strip_Straight_1x05_Pitch2.54mm" H 2700 4300 50  0001 C CNN
F 3 "" H 2700 4300 50  0001 C CNN
	1    2700 4300
	-1   0    0    1   
$EndComp
$Comp
L BC547 Q1
U 1 1 5A6A49A6
P 3950 2950
F 0 "Q1" H 4150 3025 50  0000 L CNN
F 1 "BC547" H 4150 2950 50  0000 L CNN
F 2 "TO_SOT_Packages_THT:TO-92_Molded_Narrow" H 4150 2875 50  0001 L CIN
F 3 "" H 3950 2950 50  0001 L CNN
	1    3950 2950
	0    -1   -1   0   
$EndComp
$Comp
L R R4
U 1 1 5A6A4BF8
P 2900 2150
F 0 "R4" V 2800 2150 50  0000 C CNN
F 1 "3k3" V 2900 2150 50  0000 C CNN
F 2 "Resistors_THT:R_Axial_DIN0414_L11.9mm_D4.5mm_P15.24mm_Horizontal" V 2830 2150 50  0001 C CNN
F 3 "" H 2900 2150 50  0001 C CNN
	1    2900 2150
	-1   0    0    1   
$EndComp
$Comp
L R R5
U 1 1 5A6A4CCF
P 2900 2700
F 0 "R5" V 2800 2700 50  0000 C CNN
F 1 "1k" V 2900 2700 50  0000 C CNN
F 2 "Resistors_THT:R_Axial_DIN0414_L11.9mm_D4.5mm_P15.24mm_Horizontal" V 2830 2700 50  0001 C CNN
F 3 "" H 2900 2700 50  0001 C CNN
	1    2900 2700
	-1   0    0    1   
$EndComp
$Comp
L R R6
U 1 1 5A6A5578
P 2900 3100
F 0 "R6" V 2800 3100 50  0000 C CNN
F 1 "1k" V 2900 3100 50  0000 C CNN
F 2 "Resistors_THT:R_Axial_DIN0414_L11.9mm_D4.5mm_P15.24mm_Horizontal" V 2830 3100 50  0001 C CNN
F 3 "" H 2900 3100 50  0001 C CNN
	1    2900 3100
	-1   0    0    1   
$EndComp
$Comp
L GND #PWR02
U 1 1 5A6A5622
P 2900 3400
F 0 "#PWR02" H 2900 3150 50  0001 C CNN
F 1 "GND" H 2900 3250 50  0000 C CNN
F 2 "" H 2900 3400 50  0001 C CNN
F 3 "" H 2900 3400 50  0001 C CNN
	1    2900 3400
	1    0    0    -1  
$EndComp
$Comp
L R R3
U 1 1 5A6A56F5
P 1750 3100
F 0 "R3" V 1850 3100 50  0000 C CNN
F 1 "1k" V 1750 3100 50  0000 C CNN
F 2 "Resistors_THT:R_Axial_DIN0414_L11.9mm_D4.5mm_P15.24mm_Horizontal" V 1680 3100 50  0001 C CNN
F 3 "" H 1750 3100 50  0001 C CNN
	1    1750 3100
	1    0    0    -1  
$EndComp
$Comp
L R R2
U 1 1 5A6A5746
P 1750 2700
F 0 "R2" V 1830 2700 50  0000 C CNN
F 1 "800R" V 1750 2700 50  0000 C CNN
F 2 "Resistors_THT:R_Axial_DIN0414_L11.9mm_D4.5mm_P15.24mm_Horizontal" V 1680 2700 50  0001 C CNN
F 3 "" H 1750 2700 50  0001 C CNN
	1    1750 2700
	1    0    0    -1  
$EndComp
$Comp
L R R1
U 1 1 5A6A57AB
P 1750 2150
F 0 "R1" V 1850 2150 50  0000 C CNN
F 1 "1k" V 1750 2150 50  0000 C CNN
F 2 "Resistors_THT:R_Axial_DIN0414_L11.9mm_D4.5mm_P15.24mm_Horizontal" V 1680 2150 50  0001 C CNN
F 3 "" H 1750 2150 50  0001 C CNN
	1    1750 2150
	1    0    0    -1  
$EndComp
$Comp
L +5V #PWR03
U 1 1 5A6A5889
P 1750 1550
F 0 "#PWR03" H 1750 1400 50  0001 C CNN
F 1 "+5V" H 1750 1690 50  0000 C CNN
F 2 "" H 1750 1550 50  0001 C CNN
F 3 "" H 1750 1550 50  0001 C CNN
	1    1750 1550
	1    0    0    -1  
$EndComp
$Comp
L BC547 Q2
U 1 1 5A6A6119
P 4500 1750
F 0 "Q2" H 4700 1825 50  0000 L CNN
F 1 "BC547" H 4700 1750 50  0000 L CNN
F 2 "TO_SOT_Packages_THT:TO-92_Molded_Narrow" H 4700 1675 50  0001 L CIN
F 3 "" H 4500 1750 50  0001 L CNN
	1    4500 1750
	0    -1   -1   0   
$EndComp
$Comp
L USB_B J1
U 1 1 5A6A63F7
P 1050 1650
F 0 "J1" H 850 2100 50  0000 L CNN
F 1 "USB_B" H 850 2000 50  0000 L CNN
F 2 "Connectors:USB_B" H 1200 1600 50  0001 C CNN
F 3 "" H 1200 1600 50  0001 C CNN
	1    1050 1650
	1    0    0    -1  
$EndComp
$Comp
L TIANBO-HJR-4102-L K1
U 1 1 5A6B4C50
P 5850 1800
F 0 "K1" H 6300 1950 50  0000 L CNN
F 1 "5V relay" H 6300 1850 50  0000 L CNN
F 2 "Relays_THT:Relay_SPDT_HJR-4102" H 6950 1750 50  0001 C CNN
F 3 "" H 6300 1950 50  0001 C CNN
	1    5850 1800
	1    0    0    -1  
$EndComp
$Comp
L GND #PWR04
U 1 1 5A6B7028
P 5450 2150
F 0 "#PWR04" H 5450 1900 50  0001 C CNN
F 1 "GND" H 5450 2000 50  0000 C CNN
F 2 "" H 5450 2150 50  0001 C CNN
F 3 "" H 5450 2150 50  0001 C CNN
	1    5450 2150
	1    0    0    -1  
$EndComp
$Comp
L GND #PWR05
U 1 1 5A6B7209
P 7650 2700
F 0 "#PWR05" H 7650 2450 50  0001 C CNN
F 1 "GND" H 7650 2550 50  0000 C CNN
F 2 "" H 7650 2700 50  0001 C CNN
F 3 "" H 7650 2700 50  0001 C CNN
	1    7650 2700
	1    0    0    -1  
$EndComp
$Comp
L SW_DIP_x01 SW1
U 1 1 5A6B8BA9
P 3900 5100
F 0 "SW1" H 3900 5250 50  0000 C CNN
F 1 "RESET" H 3900 4950 50  0000 C CNN
F 2 ".pretty:SW_NKK_G1xJP" H 3900 5100 50  0001 C CNN
F 3 "" H 3900 5100 50  0001 C CNN
	1    3900 5100
	1    0    0    -1  
$EndComp
$Comp
L SW_DIP_x01 SW2
U 1 1 5A6B8F61
P 5900 5100
F 0 "SW2" H 5900 5250 50  0000 C CNN
F 1 "FLASH" H 5900 4950 50  0000 C CNN
F 2 ".pretty:SW_NKK_G1xJP" H 5900 5100 50  0001 C CNN
F 3 "" H 5900 5100 50  0001 C CNN
	1    5900 5100
	1    0    0    -1  
$EndComp
$Comp
L D D1
U 1 1 5A6CB051
P 5300 1800
F 0 "D1" H 5300 1900 50  0000 C CNN
F 1 "1N4001" H 5300 1700 50  0000 C CNN
F 2 "Diodes_THT:D_A-405_P7.62mm_Horizontal" H 5300 1800 50  0001 C CNN
F 3 "" H 5300 1800 50  0001 C CNN
	1    5300 1800
	0    1    1    0   
$EndComp
$Comp
L C C1
U 1 1 5A6CBDC3
P 1400 2150
F 0 "C1" H 1425 2250 50  0000 L CNN
F 1 "100nF" H 1425 2050 50  0000 L CNN
F 2 "Capacitors_THT:C_Disc_D4.3mm_W1.9mm_P5.00mm" H 1438 2000 50  0001 C CNN
F 3 "" H 1400 2150 50  0001 C CNN
	1    1400 2150
	1    0    0    -1  
$EndComp
$Comp
L D D3
U 1 1 5A6CC902
P 6850 2750
F 0 "D3" H 6850 2850 50  0000 C CNN
F 1 "1N4148" H 6850 2650 50  0000 C CNN
F 2 "Diodes_THT:D_DO-15_P12.70mm_Horizontal" H 6850 2750 50  0001 C CNN
F 3 "" H 6850 2750 50  0001 C CNN
	1    6850 2750
	-1   0    0    1   
$EndComp
$Comp
L D D2
U 1 1 5A6CC99B
P 6200 3250
F 0 "D2" H 6200 3350 50  0000 C CNN
F 1 "1N4148" H 6200 3150 50  0000 C CNN
F 2 "Diodes_THT:D_DO-15_P15.24mm_Horizontal" H 6200 3250 50  0001 C CNN
F 3 "" H 6200 3250 50  0001 C CNN
	1    6200 3250
	0    1    1    0   
$EndComp
$Comp
L C C2
U 1 1 5A6CCAE8
P 3550 3250
F 0 "C2" H 3575 3350 50  0000 L CNN
F 1 "100nF" H 3575 3150 50  0000 L CNN
F 2 "Capacitors_THT:C_Disc_D4.3mm_W1.9mm_P5.00mm" H 3588 3100 50  0001 C CNN
F 3 "" H 3550 3250 50  0001 C CNN
	1    3550 3250
	1    0    0    -1  
$EndComp
$Comp
L R R9
U 1 1 5A6CD2FE
P 3350 2150
F 0 "R9" V 3430 2150 50  0000 C CNN
F 1 "4k7" V 3350 2150 50  0000 C CNN
F 2 "Resistors_THT:R_Axial_DIN0414_L11.9mm_D4.5mm_P5.08mm_Vertical" V 3280 2150 50  0001 C CNN
F 3 "" H 3350 2150 50  0001 C CNN
	1    3350 2150
	1    0    0    -1  
$EndComp
Text Notes 6500 5350 0    60   ~ 0
RESET and FLASH buttons are optional because programming is manipulated by the\nDTR pin of FTDI, via the two 1N4148 diodes, 100nF capacitor and 4k7 resistor.
$Comp
L LTV-817 U2
U 1 1 5AAE1709
P 8150 2500
F 0 "U2" H 7950 2700 50  0000 L CNN
F 1 "LTV-817" H 8150 2700 50  0000 L CNN
F 2 "Housings_DIP:DIP-16_W7.62mm_LongPads" H 7950 2300 50  0001 L CIN
F 3 "" H 8150 2400 50  0001 L CNN
	1    8150 2500
	1    0    0    -1  
$EndComp
$Comp
L Conn_01x02_Female J3
U 1 1 5A6A5207
P 7250 2050
F 0 "J3" H 7250 2150 50  0000 C CNN
F 1 "Switch contacts" H 7250 1850 50  0000 C CNN
F 2 "Connectors_Phoenix:PhoenixContact_MC-GF_02x5.08mm_Angled_ThreadedFlange" H 7250 2050 50  0001 C CNN
F 3 "" H 7250 2050 50  0001 C CNN
	1    7250 2050
	1    0    0    -1  
$EndComp
$Comp
L Conn_01x02_Female J5
U 1 1 5C018C22
P 7450 1550
F 0 "J5" H 7450 1650 50  0000 C CNN
F 1 "Switch contacts" H 7450 1350 50  0000 C CNN
F 2 "Connectors_Phoenix:PhoenixContact_MC-GF_02x5.08mm_Angled_ThreadedFlange" H 7450 1550 50  0001 C CNN
F 3 "" H 7450 1550 50  0001 C CNN
	1    7450 1550
	1    0    0    -1  
$EndComp
$Comp
L Battery_Cell BT1
U 1 1 5C01B0EE
P 2300 3100
F 0 "BT1" H 2400 3200 50  0000 L CNN
F 1 "Battery_Cell" H 2400 3100 50  0000 L CNN
F 2 "Battery_Holders:Keystone_103_1x20mm-CoinCell" V 2300 3160 50  0001 C CNN
F 3 "" V 2300 3160 50  0001 C CNN
	1    2300 3100
	1    0    0    -1  
$EndComp
$Comp
L D D5
U 1 1 5C01B2B5
P 2300 2700
F 0 "D5" H 2300 2800 50  0000 C CNN
F 1 "1N4001" H 2300 2600 50  0000 C CNN
F 2 "Diodes_THT:D_DO-15_P12.70mm_Horizontal" H 2300 2700 50  0001 C CNN
F 3 "" H 2300 2700 50  0001 C CNN
	1    2300 2700
	0    1    1    0   
$EndComp
Wire Wire Line
	2700 1800 3900 1800
Wire Wire Line
	3900 1800 3900 2000
Wire Wire Line
	3650 2000 3650 1800
Connection ~ 3650 1800
Wire Wire Line
	3900 2300 6600 2300
Wire Wire Line
	6600 2300 6600 4000
Wire Wire Line
	3650 2300 3650 2450
Wire Wire Line
	3650 2450 6500 2450
Wire Wire Line
	5750 3900 6500 3900
Wire Wire Line
	6600 4000 5750 4000
Wire Wire Line
	3400 3500 3950 3500
Wire Wire Line
	3150 1800 3150 4400
Wire Wire Line
	3150 4200 3950 4200
Connection ~ 3150 1800
Connection ~ 6500 3900
Wire Wire Line
	5750 4200 5900 4200
Wire Wire Line
	5900 4100 5900 4750
Wire Wire Line
	5400 4750 6950 4750
Wire Wire Line
	5400 4750 5400 5400
Connection ~ 5400 5100
Wire Wire Line
	5750 3500 6850 3500
Wire Wire Line
	5750 3600 6750 3600
Wire Wire Line
	6750 3600 6750 2850
Wire Wire Line
	6750 2850 7100 2850
Wire Wire Line
	6850 3500 6850 2950
Wire Wire Line
	6850 2950 7100 2950
Wire Wire Line
	7100 3250 6950 3250
Wire Wire Line
	6950 3250 6950 4750
Connection ~ 5900 4750
Wire Wire Line
	2900 4500 3150 4500
Wire Wire Line
	3150 4500 3150 5600
Wire Wire Line
	3150 5600 4800 5600
Wire Wire Line
	4800 5600 4800 5100
Connection ~ 4800 5100
Wire Wire Line
	3150 4400 2900 4400
Connection ~ 3150 4200
Wire Wire Line
	2900 2000 2900 1800
Connection ~ 2900 1800
Wire Wire Line
	2900 2300 2900 2550
Wire Wire Line
	2900 2450 3050 2450
Wire Wire Line
	3050 2450 3050 2850
Wire Wire Line
	3050 2850 3750 2850
Connection ~ 2900 2450
Wire Wire Line
	3950 3150 5900 3150
Wire Wire Line
	5900 3150 5900 3700
Wire Wire Line
	5900 3700 5750 3700
Wire Wire Line
	4800 2850 4150 2850
Wire Wire Line
	4800 2550 4800 2850
Wire Wire Line
	6050 2150 7050 2150
Wire Wire Line
	6950 1350 6950 2050
Wire Wire Line
	6050 2100 6050 2150
Wire Wire Line
	2900 2850 2900 2950
Wire Wire Line
	2900 3250 2900 3400
Wire Wire Line
	1750 1550 1750 2000
Wire Wire Line
	1750 2300 1750 2550
Wire Wire Line
	1750 2950 1750 2850
Wire Wire Line
	1750 3250 1750 3300
Wire Wire Line
	1050 3300 2900 3300
Connection ~ 2900 3300
Wire Wire Line
	2700 2450 2700 1800
Connection ~ 1750 2450
Wire Wire Line
	5650 1500 5650 1350
Wire Wire Line
	5650 1350 5150 1350
Wire Wire Line
	5150 1350 5150 1650
Connection ~ 1750 1650
Wire Wire Line
	4700 1650 5300 1650
Wire Wire Line
	1550 1650 4300 1650
Wire Wire Line
	4500 1950 4500 3100
Wire Wire Line
	4500 3100 6050 3100
Wire Wire Line
	6050 3100 6050 3800
Wire Wire Line
	6050 3800 5750 3800
Wire Wire Line
	1350 1450 1550 1450
Wire Wire Line
	1550 1450 1550 1850
Wire Wire Line
	1050 2050 1050 3300
Connection ~ 1750 3300
Wire Wire Line
	5750 4100 5900 4100
Connection ~ 5900 4200
Wire Wire Line
	5300 2100 5650 2100
Wire Wire Line
	5450 2100 5450 2150
Wire Wire Line
	7850 2400 7600 2400
Wire Wire Line
	7600 2400 7600 2550
Wire Wire Line
	7600 2550 4800 2550
Wire Wire Line
	7850 2600 7650 2600
Wire Wire Line
	7650 2600 7650 2700
Wire Wire Line
	6950 2050 7050 2050
Wire Wire Line
	8500 1350 8500 2400
Wire Wire Line
	8500 2400 8450 2400
Wire Wire Line
	8450 2600 8550 2600
Wire Wire Line
	8550 2600 8550 1850
Wire Wire Line
	6500 2450 6500 5100
Wire Wire Line
	6500 5100 6200 5100
Wire Wire Line
	3400 5100 3600 5100
Wire Wire Line
	4200 5100 5600 5100
Wire Wire Line
	3950 4100 3000 4100
Wire Wire Line
	3950 4000 2900 4000
Wire Wire Line
	2900 4000 2900 4100
Wire Wire Line
	3000 4100 3000 4200
Wire Wire Line
	3000 4200 2900 4200
Wire Wire Line
	2900 4300 3800 4300
Wire Wire Line
	3800 4300 3800 3900
Wire Wire Line
	3800 3900 3950 3900
Wire Wire Line
	3400 3500 3400 5100
Wire Wire Line
	3950 3800 3400 3800
Connection ~ 3400 3800
Connection ~ 5150 1650
Wire Wire Line
	5300 1950 5300 2100
Connection ~ 5450 2100
Wire Wire Line
	1400 2000 1400 1850
Wire Wire Line
	1400 1850 1550 1850
Connection ~ 1550 1650
Wire Wire Line
	1400 2300 1400 2500
Wire Wire Line
	1400 2500 1050 2500
Connection ~ 1050 2500
Wire Wire Line
	3550 3400 3550 3700
Wire Wire Line
	3550 3700 3950 3700
Wire Wire Line
	7000 2750 7100 2750
Wire Wire Line
	3550 2750 6700 2750
Wire Wire Line
	6200 2750 6200 3100
Wire Wire Line
	6200 3400 6200 3900
Connection ~ 6200 3900
Wire Wire Line
	3550 2750 3550 3100
Connection ~ 6200 2750
Wire Wire Line
	3350 2000 3350 1800
Connection ~ 3350 1800
Wire Wire Line
	3350 2300 3350 3450
Wire Wire Line
	3350 3450 3550 3450
Connection ~ 3550 3450
Wire Notes Line
	3500 4800 3500 5350
Wire Notes Line
	3500 5350 6400 5350
Wire Notes Line
	6400 5350 6400 4800
Wire Notes Line
	6400 4800 3500 4800
Wire Wire Line
	6150 1500 6150 1350
Wire Wire Line
	6150 1350 6950 1350
Wire Wire Line
	8500 1350 7250 1350
Wire Wire Line
	7250 1350 7250 1550
Wire Wire Line
	8550 1850 7100 1850
Wire Wire Line
	7100 1850 7100 1650
Wire Wire Line
	7100 1650 7250 1650
Wire Wire Line
	2300 2550 2300 2450
Connection ~ 2300 2450
$Comp
L D D4
U 1 1 5C01BB94
P 2000 2450
F 0 "D4" H 2000 2550 50  0000 C CNN
F 1 "1N4001" H 2000 2350 50  0000 C CNN
F 2 "Diodes_THT:D_A-405_P7.62mm_Horizontal" H 2000 2450 50  0001 C CNN
F 3 "" H 2000 2450 50  0001 C CNN
	1    2000 2450
	-1   0    0    1   
$EndComp
Wire Wire Line
	1750 2450 1850 2450
Wire Wire Line
	2150 2450 2700 2450
Wire Wire Line
	2300 2850 2300 2900
Wire Wire Line
	2300 3200 2300 3300
Connection ~ 2300 3300
$EndSCHEMATC
